{
    "name": "SPIFFSutils",
    "version": "1.1.2",
    "description": "A basic custom ESP32 library for reading, writing, deleting, and listing text files in the SPI flash file system (SPIFFS).",
    "keywords": "esp32, library",
    "repository":
    {
      "type": "git",
      "url": "https://gitlab.com/esp324343607/public_custom_libraries/spiffs_utils.git"
    },
    "authors":
    [
      {
        "name": "David Mack",
        "email": "david@mackstudiopro.com",
        "url": "https://www.mackstudiopro.com",
        "maintainer": true
      }
    ],
    "license": "MIT",
    "homepage": "https://gitlab.com/esp324343607/public_custom_libraries/spiffs_utils.git",
    "dependencies": {},
    "frameworks": ["Arduino"],
    "platforms": "*"
  }
